16 -8 -8 -16 -24 880
32 -8 -40 888
-16 40 -8 -8 888
-8 -8 -16 -40 -24 856
24 -24 -8 -16 888
-16 -8 -16 -8 912
24 -16 -8 -16 -24 864
-16 -16 -8 -16 -24 872
-8 -16 -24 -8 -8 888
40 -16 920
24 -8 -16 920
-40 8 -16 -24 872
-16 32 -40 880
-32 -24 -8 -24 872
-16 8 -40 -24 -48 -32 776
-24 -16 -40 -8 -24 840
-16 -48 -24 880
992
24 -24 -40 -56 -8 -8 784
992
992
-8 -24 -24 -16 -40 840
16 -32 24 -32 856
-32 -24 48 -8 -8 -16 808
